…
We noticed that the ingredients were listed in one row, so we separated them into their own rows. 


```r
indian_food<-indian_food%>%
  mutate_all(tolower)%>%
  transform(ingredients=str_split(ingredients,","))%>%
  unnest(ingredients)
indian_food
```

```
## # A tibble: 1,136 x 9
##    name        ingredients diet  prep_time cook_time flavor_profile course state
##    <chr>       <chr>       <chr> <chr>     <chr>     <chr>          <chr>  <chr>
##  1 balu shahi  "maida flo~ vege~ 45        25        sweet          desse~ west~
##  2 balu shahi  " yogurt"   vege~ 45        25        sweet          desse~ west~
##  3 balu shahi  " oil"      vege~ 45        25        sweet          desse~ west~
##  4 balu shahi  " sugar"    vege~ 45        25        sweet          desse~ west~
##  5 boondi      "gram flou~ vege~ 80        30        sweet          desse~ raja~
##  6 boondi      " ghee"     vege~ 80        30        sweet          desse~ raja~
##  7 boondi      " sugar"    vege~ 80        30        sweet          desse~ raja~
##  8 gajar ka h~ "carrots"   vege~ 15        60        sweet          desse~ punj~
##  9 gajar ka h~ " milk"     vege~ 15        60        sweet          desse~ punj~
## 10 gajar ka h~ " sugar"    vege~ 15        60        sweet          desse~ punj~
## # ... with 1,126 more rows, and 1 more variable: region <chr>
```

f. Adding Total Cook Time column which combines cook time and prep time. 

```r
indian_food<-indian_food%>%
  mutate(total_cook_time=as.numeric(cook_time)+as.numeric(prep_time))
indian_food
```

```
## # A tibble: 1,136 x 10
##    name        ingredients diet  prep_time cook_time flavor_profile course state
##    <chr>       <chr>       <chr> <chr>     <chr>     <chr>          <chr>  <chr>
##  1 balu shahi  "maida flo~ vege~ 45        25        sweet          desse~ west~
##  2 balu shahi  " yogurt"   vege~ 45        25        sweet          desse~ west~
##  3 balu shahi  " oil"      vege~ 45        25        sweet          desse~ west~
##  4 balu shahi  " sugar"    vege~ 45        25        sweet          desse~ west~
##  5 boondi      "gram flou~ vege~ 80        30        sweet          desse~ raja~
##  6 boondi      " ghee"     vege~ 80        30        sweet          desse~ raja~
##  7 boondi      " sugar"    vege~ 80        30        sweet          desse~ raja~
##  8 gajar ka h~ "carrots"   vege~ 15        60        sweet          desse~ punj~
##  9 gajar ka h~ " milk"     vege~ 15        60        sweet          desse~ punj~
## 10 gajar ka h~ " sugar"    vege~ 15        60        sweet          desse~ punj~
## # ... with 1,126 more rows, and 2 more variables: region <chr>,
## #   total_cook_time <dbl>
```
…
indian_food_together <-indian_food_together%>%
  na_if("-1")

indian_food_together <- indian_food_together%>%
  mutate(cook_time=as.numeric(cook_time), prep_time=as.numeric(prep_time)) %>% 
  mutate(total_cook_time=cook_time+prep_time)


indian_food_together
```

```
## # A tibble: 255 x 10
##    name        ingredients diet  prep_time cook_time flavor_profile course state
##    <chr>       <chr>       <chr>     <dbl>     <dbl> <chr>          <chr>  <chr>
##  1 balu shahi  maida flou~ vege~        45        25 sweet          desse~ west~
##  2 boondi      gram flour~ vege~        80        30 sweet          desse~ raja~
##  3 gajar ka h~ carrots, m~ vege~        15        60 sweet          desse~ punj~
##  4 ghevar      flour, ghe~ vege~        15        30 sweet          desse~ raja~
##  5 gulab jamun milk powde~ vege~        15        40 sweet          desse~ west~
##  6 imarti      sugar syru~ vege~        10        50 sweet          desse~ west~
##  7 jalebi      maida, cor~ vege~        10        50 sweet          desse~ utta~
##  8 kaju katli  cashews, g~ vege~        10        20 sweet          desse~ <NA> 
##  9 kalakand    milk, cott~ vege~        20        30 sweet          desse~ west~
## 10 kheer       milk, rice~ vege~        10        40 sweet          desse~ <NA> 
## # ... with 245 more rows, and 2 more variables: region <chr>,
## #   total_cook_time <dbl>
```
…
4. Which ingredient is used the most for each region? EMILY

```r
indian_food%>%
  select(region, ingredients)%>%
  group_by(region)%>%
  count(ingredients)%>%
  arrange(desc(n))
```

```
## # A tibble: 685 x 3
## # Groups:   region [7]
##    region     ingredients         n
##    <chr>      <chr>           <int>
##  1 north      " garam masala"    22
##  2 south      " curry leaves"    15
##  3 east       " sugar"           14
##  4 south      " urad dal"        12
##  5 west       " sugar"           12
##  6 north      " ginger"          10
##  7 south      " jaggery"          9
##  8 north east " mustard oil"      8
##  9 south      " sugar"            8
## 10 south      "chana dal"         8
## # ... with 675 more rows
```
…
6. What diet is more associated with which region/state? GABE

```r
diet_region<-indian_food%>%
select("region", "diet")%>%
  filter(!is.na(region))
  #count(region, diet)%>%
  #arrange(desc(n))
diet_region
```

```
## # A tibble: 1,072 x 2
##    region diet      
##    <chr>  <chr>     
##  1 east   vegetarian
##  2 east   vegetarian
##  3 east   vegetarian
##  4 east   vegetarian
##  5 west   vegetarian
##  6 west   vegetarian
##  7 west   vegetarian
##  8 north  vegetarian
##  9 north  vegetarian
## 10 north  vegetarian
## # ... with 1,062 more rows
```
…
8. What is the population growth, GDP growth, and life expectancy of India (use gapminder data)? GABE

```r
gapminder
```

```
## # A tibble: 1,704 x 6
##    country     continent  year lifeExp      pop gdpPercap
##    <fct>       <fct>     <int>   <dbl>    <int>     <dbl>
##  1 Afghanistan Asia       1952    28.8  8425333      779.
##  2 Afghanistan Asia       1957    30.3  9240934      821.
##  3 Afghanistan Asia       1962    32.0 10267083      853.
##  4 Afghanistan Asia       1967    34.0 11537966      836.
##  5 Afghanistan Asia       1972    36.1 13079460      740.
##  6 Afghanistan Asia       1977    38.4 14880372      786.
##  7 Afghanistan Asia       1982    39.9 12881816      978.
##  8 Afghanistan Asia       1987    40.8 13867957      852.
##  9 Afghanistan Asia       1992    41.7 16317921      649.
## 10 Afghanistan Asia       1997    41.8 22227415      635.
## # ... with 1,694 more rows
```
…
```r
agriculture <- agriculture %>% 
  mutate_all(tolower)

agriculture <- agriculture %>% 
  select("crop", "state")

agriculture
```

```
## # A tibble: 49 x 2
##    crop   state         
##    <chr>  <chr>         
##  1 arhar  uttar pradesh 
##  2 arhar  karnataka     
##  3 arhar  gujarat       
##  4 arhar  andhra pradesh
##  5 arhar  maharashtra   
##  6 cotton maharashtra   
##  7 cotton punjab        
##  8 cotton andhra pradesh
##  9 cotton gujarat       
## 10 cotton haryana       
## # ... with 39 more rows
```

b. Both datasets shared a similar region column, which we used to merge the two.

```r
agr_diet <- full_join(indian_food_together, agriculture, by="state")
agr_diet
```

```
## # A tibble: 773 x 11
##    name        ingredients diet  prep_time cook_time flavor_profile course state
##    <chr>       <chr>       <chr>     <dbl>     <dbl> <chr>          <chr>  <chr>
##  1 balu shahi  maida flou~ vege~        45        25 sweet          desse~ west~
##  2 boondi      gram flour~ vege~        80        30 sweet          desse~ raja~
##  3 boondi      gram flour~ vege~        80        30 sweet          desse~ raja~
##  4 boondi      gram flour~ vege~        80        30 sweet          desse~ raja~
##  5 boondi      gram flour~ vege~        80        30 sweet          desse~ raja~
##  6 boondi      gram flour~ vege~        80        30 sweet          desse~ raja~
##  7 gajar ka h~ carrots, m~ vege~        15        60 sweet          desse~ punj~
##  8 gajar ka h~ carrots, m~ vege~        15        60 sweet          desse~ punj~
##  9 gajar ka h~ carrots, m~ vege~        15        60 sweet          desse~ punj~
## 10 ghevar      flour, ghe~ vege~        15        30 sweet          desse~ raja~
## # ... with 763 more rows, and 3 more variables: region <chr>,
## #   total_cook_time <dbl>, crop <chr>
```
…
